{
    "name": "@PROJECT_NAME",
    "version": "1.0.0",
    "author": "Zachary J. Fields <zachary_fields@yahoo.com>",
    "license": "The MIT License (MIT)",
    "description": "<A brief description>"
}
